[
  {
    "ref": "xxcvxcvxv",
    "name": "name",
    "comment": "comment"
  },
  {
    "ref": "xxcvxcvxv",
    "name": "name",
    "comment": "comment"
  },
  {
    "ref": "xxcvxcvxv",
    "name": "name",
    "comment": "comment"
  }
]